Lab 5
…
time_series_deaths <- read_csv("data/time_series_covid19_deaths_global.csv")%>%
  rename(Province_State = "Province/State", Country_Region = "Country/Region")

## Parsed with column specification:
## cols(
##   .default = col_double(),
##   `Province/State` = col_character(),
##   `Country/Region` = col_character()
## )

## See spec(...) for full column specifications.

time_series_deaths

## # A tibble: 266 x 253
##    Province_State Country_Region   Lat   Long `1/22/20` `1/23/20` `1/24/20`
##    <chr>          <chr>          <dbl>  <dbl>     <dbl>     <dbl>     <dbl>
##  1 <NA>           Afghanistan     33.9  67.7          0         0         0
##  2 <NA>           Albania         41.2  20.2          0         0         0
##  3 <NA>           Algeria         28.0   1.66         0         0         0
##  4 <NA>           Andorra         42.5   1.52         0         0         0
##  5 <NA>           Angola         -11.2  17.9          0         0         0
##  6 <NA>           Antigua and B~  17.1 -61.8          0         0         0
##  7 <NA>           Argentina      -38.4 -63.6          0         0         0
##  8 <NA>           Armenia         40.1  45.0          0         0         0
##  9 Australian Ca~ Australia      -35.5 149.           0         0         0
## 10 New South Wal~ Australia      -33.9 151.           0         0         0
## # ... with 256 more rows, and 246 more variables: `1/25/20` <dbl>,
## #   `1/26/20` <dbl>, `1/27/20` <dbl>, `1/28/20` <dbl>, `1/29/20` <dbl>,
## #   `1/30/20` <dbl>, `1/31/20` <dbl>, `2/1/20` <dbl>, `2/2/20` <dbl>,
## #   `2/3/20` <dbl>, `2/4/20` <dbl>, `2/5/20` <dbl>, `2/6/20` <dbl>,
## #   `2/7/20` <dbl>, `2/8/20` <dbl>, `2/9/20` <dbl>, `2/10/20` <dbl>,
## #   `2/11/20` <dbl>, `2/12/20` <dbl>, `2/13/20` <dbl>, `2/14/20` <dbl>,
## #   `2/15/20` <dbl>, `2/16/20` <dbl>, `2/17/20` <dbl>, `2/18/20` <dbl>,
## #   `2/19/20` <dbl>, `2/20/20` <dbl>, `2/21/20` <dbl>, `2/22/20` <dbl>,
## #   `2/23/20` <dbl>, `2/24/20` <dbl>, `2/25/20` <dbl>, `2/26/20` <dbl>,
…
read_csv("https://raw.githubusercontent.com/CSSEGISandData/COVID-19/master/csse_covid_19_data/csse_covid_19_daily_reports/03-13-2020.csv")

## Parsed with column specification:
## cols(
##   `Province/State` = col_character(),
##   `Country/Region` = col_character(),
##   `Last Update` = col_datetime(format = ""),
##   Confirmed = col_double(),
##   Deaths = col_double(),
##   Recovered = col_double(),
##   Latitude = col_double(),
##   Longitude = col_double()
## )

## # A tibble: 230 x 8
##    `Province/State` `Country/Region` `Last Update`       Confirmed Deaths
##    <chr>            <chr>            <dttm>                  <dbl>  <dbl>
##  1 Hubei            China            2020-03-13 11:09:03     67786   3062
##  2 Guangdong        China            2020-03-13 11:09:03      1356      8
##  3 Henan            China            2020-03-11 08:13:09      1273     22
##  4 Zhejiang         China            2020-03-12 01:33:02      1215      1
##  5 Hunan            China            2020-03-13 11:09:03      1018      4
##  6 Anhui            China            2020-03-11 02:18:14       990      6
##  7 Jiangxi          China            2020-03-12 02:13:04       935      1
##  8 Shandong         China            2020-03-13 11:09:03       760      7
##  9 Jiangsu          China            2020-03-13 11:09:03       631      0
## 10 Chongqing        China            2020-03-13 23:13:12       576      6
## # ... with 220 more rows, and 3 more variables: Recovered <dbl>,
## #   Latitude <dbl>, Longitude <dbl>
…
deaths_per_cases_global <- time_series_long_joined %>% 
  group_by(Country_Region) %>% 
  summarise(Date = Date,
            Cases = Confirmed,
            Deaths = Deaths) %>% 
  mutate("Deaths_per" = Deaths / Cases)

## `summarise()` regrouping output by 'Country_Region' (override with `.groups` argument)

deaths_per_cases_global

## # A tibble: 66,234 x 5
## # Groups:   Country_Region [188]
##    Country_Region Date       Cases Deaths Deaths_per
##    <chr>          <date>     <dbl>  <dbl>      <dbl>
##  1 Afghanistan    2020-01-22     0      0        NaN
##  2 Afghanistan    2020-01-23     0      0        NaN
##  3 Afghanistan    2020-01-24     0      0        NaN
##  4 Afghanistan    2020-01-25     0      0        NaN
##  5 Afghanistan    2020-01-26     0      0        NaN
##  6 Afghanistan    2020-01-27     0      0        NaN
##  7 Afghanistan    2020-01-28     0      0        NaN
##  8 Afghanistan    2020-01-29     0      0        NaN
##  9 Afghanistan    2020-01-30     0      0        NaN
## 10 Afghanistan    2020-01-31     0      0        NaN
## # ... with 66,224 more rows
…
time_series_deaths_long %>% 
  group_by(Country_Region) %>% 
  filter(Date == "2020-09-20") %>% 
  summarise(Date = Date,
            Total_Deaths = Deaths) %>% 
  arrange(desc(Total_Deaths))

## `summarise()` regrouping output by 'Country_Region' (override with `.groups` argument)

## # A tibble: 266 x 3
## # Groups:   Country_Region [188]
##    Country_Region Date       Total_Deaths
##    <chr>          <date>            <dbl>
##  1 US             2020-09-20       199509
##  2 Brazil         2020-09-20       136895
##  3 India          2020-09-20        87882
##  4 Mexico         2020-09-20        73493
##  5 United Kingdom 2020-09-20        41777
##  6 Italy          2020-09-20        35707
##  7 Peru           2020-09-20        31369
##  8 France         2020-09-20        31085
##  9 Spain          2020-09-20        30495
## 10 Iran           2020-09-20        24301
## # ... with 256 more rows
…
## Parsed with column specification:
## cols(
##   .default = col_double(),
##   iso2 = col_character(),
##   iso3 = col_character(),
##   Admin2 = col_character(),
##   Province_State = col_character(),
##   Country_Region = col_character(),
##   Combined_Key = col_character()
## )
## See spec(...) for full column specifications.

ts_us_deaths

## # A tibble: 3,340 x 261
##       UID iso2  iso3  code3  FIPS Admin2 Province_State Country_Region
##     <dbl> <chr> <chr> <dbl> <dbl> <chr>  <chr>          <chr>         
##  1 8.40e7 US    USA     840  1001 Autau~ Alabama        US            
##  2 8.40e7 US    USA     840  1003 Baldw~ Alabama        US            
##  3 8.40e7 US    USA     840  1005 Barbo~ Alabama        US            
##  4 8.40e7 US    USA     840  1007 Bibb   Alabama        US            
##  5 8.40e7 US    USA     840  1009 Blount Alabama        US            
##  6 8.40e7 US    USA     840  1011 Bullo~ Alabama        US            
##  7 8.40e7 US    USA     840  1013 Butler Alabama        US            
##  8 8.40e7 US    USA     840  1015 Calho~ Alabama        US            
##  9 8.40e7 US    USA     840  1017 Chamb~ Alabama        US            
## 10 8.40e7 US    USA     840  1019 Chero~ Alabama        US            
## # ... with 3,330 more rows, and 253 more variables: Lat <dbl>,
## #   Long_ <dbl>, Combined_Key <chr>, Population <dbl>, `1/22/20` <dbl>,
## #   `1/23/20` <dbl>, `1/24/20` <dbl>, `1/25/20` <dbl>, `1/26/20` <dbl>,
## #   `1/27/20` <dbl>, `1/28/20` <dbl>, `1/29/20` <dbl>, `1/30/20` <dbl>,
## #   `1/31/20` <dbl>, `2/1/20` <dbl>, `2/2/20` <dbl>, `2/3/20` <dbl>,
## #   `2/4/20` <dbl>, `2/5/20` <dbl>, `2/6/20` <dbl>, `2/7/20` <dbl>,
## #   `2/8/20` <dbl>, `2/9/20` <dbl>, `2/10/20` <dbl>, `2/11/20` <dbl>,
## #   `2/12/20` <dbl>, `2/13/20` <dbl>, `2/14/20` <dbl>, `2/15/20` <dbl>,
## #   `2/16/20` <dbl>, `2/17/20` <dbl>, `2/18/20` <dbl>, `2/19/20` <dbl>,
…
ts_us_joined <- full_join(ts_us_confirmed, ts_us_deaths, by = c("Province_State")) 

ts_us_joined

## # A tibble: 323,106 x 520
##     UID.x iso2.x iso3.x code3.x FIPS.x Admin2.x Province_State
##     <dbl> <chr>  <chr>    <dbl>  <dbl> <chr>    <chr>         
##  1 8.40e7 US     USA        840   1001 Autauga  Alabama       
##  2 8.40e7 US     USA        840   1001 Autauga  Alabama       
##  3 8.40e7 US     USA        840   1001 Autauga  Alabama       
##  4 8.40e7 US     USA        840   1001 Autauga  Alabama       
##  5 8.40e7 US     USA        840   1001 Autauga  Alabama       
##  6 8.40e7 US     USA        840   1001 Autauga  Alabama       
##  7 8.40e7 US     USA        840   1001 Autauga  Alabama       
##  8 8.40e7 US     USA        840   1001 Autauga  Alabama       
##  9 8.40e7 US     USA        840   1001 Autauga  Alabama       
## 10 8.40e7 US     USA        840   1001 Autauga  Alabama       
## # ... with 323,096 more rows, and 513 more variables:
## #   Country_Region.x <chr>, Lat.x <dbl>, Long_.x <dbl>,
## #   Combined_Key.x <chr>, `1/22/20.x` <dbl>, `1/23/20.x` <dbl>,
## #   `1/24/20.x` <dbl>, `1/25/20.x` <dbl>, `1/26/20.x` <dbl>,
## #   `1/27/20.x` <dbl>, `1/28/20.x` <dbl>, `1/29/20.x` <dbl>,
## #   `1/30/20.x` <dbl>, `1/31/20.x` <dbl>, `2/1/20.x` <dbl>,
## #   `2/2/20.x` <dbl>, `2/3/20.x` <dbl>, `2/4/20.x` <dbl>,
## #   `2/5/20.x` <dbl>, `2/6/20.x` <dbl>, `2/7/20.x` <dbl>,
## #   `2/8/20.x` <dbl>, `2/9/20.x` <dbl>, `2/10/20.x` <dbl>,
…
